var tanggal = 29
var bulan = 2
var tahun = 2020

var bulanStr

switch (bulan) {
    case 1:
        bulanStr = 'Januari'
        break;
    case 2:
        bulanStr = 'Februari'
        break;
    case 3:
        bulanStr = 'Maret'
    



//soal 1

//function next_date(tanggal, bulan, tahun){
//    var format ={tahun: 'numeric', bulan: 'long', tanggal: 'numeric'};
//    const tanggalBaru = new Date(tahun, bulan-1, tanggal+1);
//    console.log(tanggalBaru.toLocalDateString("id", format));
//}
//next_date(8, 9, 2021);

//var hari = new Date('Apr 30, 2020');
//console.log(hari);

//var nexthari = new Date (hari);
//nexthari.setDate(hari.getDate() +1);
//console.log(nexthari);

function next_date(tanggal, bulan, tahun) {
//    var format = {year: 'numeric', month: 'long', day: 'numeric' };
//    const tglBaru = new Date(tahun, bulan-1, tanggal+1);
    var tanggal = 31
    var bulan = 12
    var tahun = 2020

    var bulanStr

    switch (bulan) {
        case 1:
            bulanStr = 'Januari'
            break;
        case 2:
            bulanStr = 'Februari'
            break;
        case 3:
            bulanStr = 'Maret'
            break;
        case 4:
            bulanStr = 'April'
            break;
        case 5:
            bulanStr = 'Mei'
            break;
        case 6:
            bulanStr = 'Juni'
            break;
        case 7:
            bulanStr = 'Juli'
            break;
        case 8:
            bulanStr = 'Agustus'
            break;
        case 9:
            bulanStr = 'September'
            break;
        case 10:
            bulanStr = 'Oktober'
            break;
        case 11: 
            bulanStr = 'November'
            break;
        case 12:
            bulanStr = 'Desember'
            break;
    }
   // console.log(tglBaru.toLocaleDateString("id", format));
//}
//next_date(31, 12, 2020);
console.log(tanggal + ' ' + bulanStr + ' ' + tahun)}


//soal 2
{function jumlah_kata(kalimat_1){
    return " Halo nama saya Muhammad Iqbal Mubarok "
}
    var kalimat_1 = jumlah_kata();
    console.log( "jumlah kalimat 1: " + kalimat_1.length);
}

{function jumlah_kata(kalimat_2){
    return " saya Iqbal "
}
    var kalimat_2 = jumlah_kata();
    console.log( "jumlah kalimat 2: " + kalimat_2.length);
}
{function jumlah_kata(kalimat_3){
    return " saya Muhammad Iqbal Mubarok "
}
    var kalimat_3 = jumlah_kata();
    console.log( "jumlah kalimat 3: " + kalimat_3.length);
}